…
    ## Simple feature collection with 3000 features and 11 fields
    ## Geometry type: POLYGON
    ## Dimension:     XY
    ## Bounding box:  xmin: 404436.1 ymin: 233795.9 xmax: 594648.1 ymax: 363631.6
    ## CRS:           NA
    ## # A tibble: 3,000 × 12
    ##    gml_id    OBJECTID PERIOD_CODE PARCEL_ID PRODUCT_CODE AID_FORMS AREA_DECLARED
    ##  * <chr>        <int>       <int>     <int>        <int> <chr>             <dbl>
    ##  1 Lauki.42…  4257005        2024  17426915          710 MLS23              0.3 
    ##  2 Lauki.42…  4257006        2024  17426917          111 MLS23              0.72
    ##  3 Lauki.42…  4257318        2024  17466026          111 MLS23              2.84
    ##  4 Lauki.42…  4257333        2024  17466052          111 ISIP, EK…          1.49
    ##  5 Lauki.42…  4257334        2024  17466057          610 ISIP, EK…          9.06
    ##  6 Lauki.42…  4257339        2024  17465910          111 ISIP, EK…          8.19
    ##  7 Lauki.42…  4257340        2024  17465914          111 ISIP, EK…          0.57
    ##  8 Lauki.42…  4257348        2024  17465918          111 ISIP, EK…          1.24
    ##  9 Lauki.42…  4257349        2024  17465921          111 ISIP, EK…          0.64
    ## 10 Lauki.42…  4257350        2024  17465922          111 ISIP, EK…          0.19
    ## # ℹ 2,990 more rows
    ## # ℹ 5 more variables: DATA_CHANGED_DATE <chr>, PRODUCT_DESCRIPTION <chr>,
    ## #   SHAPE.AREA <dbl>, SHAPE.LEN <dbl>, SHAPE <POLYGON>
…
